<svg width="20" height="20" viewBox="0 0 20 20" fill="none" xmlns="http://www.w3.org/2000/svg">
<path d="M9.9995 16.7552L5.15211 19.8127C4.93797 19.9554 4.71409 20.0166 4.48048 19.9962C4.24687 19.9758 4.04246 19.8943 3.86726 19.7516C3.69205 19.6089 3.55578 19.4303 3.45844 19.2159C3.3611 19.0015 3.34164 18.7622 3.40004 18.498L4.68489 12.7193L0.392319 8.83623C0.197644 8.65278 0.0761673 8.44365 0.027888 8.20883C-0.0203912 7.97401 -0.00598538 7.7449 0.0711057 7.5215C0.148975 7.29728 0.26578 7.11383 0.42152 6.97114C0.577259 6.82846 0.791401 6.73674 1.06395 6.69597L6.72897 6.17619L8.91906 0.733805C9.0164 0.489204 9.16746 0.305752 9.37226 0.183451C9.57706 0.0611505 9.78614 0 9.9995 0C10.2136 0 10.4227 0.0611505 10.6267 0.183451C10.8308 0.305752 10.9818 0.489204 11.0799 0.733805L13.27 6.17619L18.9351 6.69597C19.2076 6.73674 19.4217 6.82846 19.5775 6.97114C19.7332 7.11383 19.85 7.29728 19.9279 7.5215C20.0058 7.74572 20.0206 7.97523 19.9723 8.21005C19.924 8.44487 19.8021 8.6536 19.6067 8.83623L15.3141 12.7193L16.599 18.498C16.6574 18.763 16.6379 19.0027 16.5406 19.2171C16.4432 19.4316 16.307 19.6097 16.1317 19.7516C15.9565 19.8943 15.7521 19.9758 15.5185 19.9962C15.2849 20.0166 15.061 19.9554 14.8469 19.8127L9.9995 16.7552Z" fill="#B6B6B6"/>
</svg>
