<svg width="24" height="24" viewBox="0 0 24 24" fill="none" xmlns="http://www.w3.org/2000/svg">
<path d="M12 22C17.5228 22 22 17.5228 22 12C22 6.47715 17.5228 2 12 2C6.47715 2 2 6.47715 2 12C2 17.5228 6.47715 22 12 22Z" stroke="#064635" stroke-width="1.5" stroke-linecap="round" stroke-linejoin="round"/>
<path d="M12 16V12" stroke="#064635" stroke-width="1.5" stroke-linecap="round" stroke-linejoin="round"/>
<path d="M12 8H12.01" stroke="#5E5E5E" stroke-width="1.5" stroke-linecap="round" stroke-linejoin="round"/>
</svg>
