<svg width="29" height="21" viewBox="0 0 29 21" fill="none" xmlns="http://www.w3.org/2000/svg">
<path d="M11.5116 14.9007L18.9506 10.6007L11.5116 6.30072V14.9007ZM28.0809 3.67772C28.2673 4.35138 28.3963 5.25438 28.4823 6.40105C28.5826 7.54772 28.6256 8.53672 28.6256 9.39672L28.7116 10.6007C28.7116 13.7397 28.4823 16.0474 28.0809 17.5237C27.7226 18.8137 26.8913 19.6451 25.6013 20.0034C24.9276 20.1897 23.6949 20.3187 21.8029 20.4047C19.9396 20.5051 18.2339 20.5481 16.6573 20.5481L14.3783 20.6341C8.37259 20.6341 4.63159 20.4047 3.15526 20.0034C1.86526 19.6451 1.03392 18.8137 0.675589 17.5237C0.489255 16.85 0.360255 15.9471 0.274255 14.8004C0.173922 13.6537 0.130922 12.6647 0.130922 11.8047L0.0449219 10.6007C0.0449219 7.46172 0.274255 5.15405 0.675589 3.67772C1.03392 2.38772 1.86526 1.55638 3.15526 1.19805C3.82892 1.01172 5.06159 0.882716 6.95359 0.796716C8.81692 0.696383 10.5226 0.653383 12.0993 0.653383L14.3783 0.567383C20.3839 0.567383 24.1249 0.796716 25.6013 1.19805C26.8913 1.55638 27.7226 2.38772 28.0809 3.67772Z" fill="#064635"/>
</svg>
